﻿{
  "Properties": {
    "CreatedInVersion": "7.18.5.1500",
    "Enabled": "True",
    "EntitySchemaUId": "11abea70-1f4d-4ec4-8f71-923cbbb8f54f",
    "IsActiveVersion": "True",
    "IsTracing": "False",
    "StageColumnUId": "d6f1466e-97c9-4e66-a4de-7fd59e41d695",
    "Version": "0"
  }
}