﻿{
  "PackageData": [
    {
      "Row": [
        {
          "SchemaColumnUId": "ae0e45ca-c495-4fe7-a39d-3ab7278e1617",
          "Value": "50c43d82-00c7-4386-9a16-56f7c713e0d2"
        },
        {
          "SchemaColumnUId": "18fd508a-8e32-454d-bd8a-82a9d4028ace",
          "Value": "485c5371-ba0b-47ea-9c81-680d98d67aeb"
        },
        {
          "SchemaColumnUId": "4420cc5f-5a43-490b-b583-f8572ac29dce",
          "Value": "fb578ce5-c237-4953-b5b9-d4e55d0f0453",
          "DisplayValue": "Соискатели"
        },
        {
          "SchemaColumnUId": "a9f680eb-bc67-4aac-919e-0ad9f1000690",
          "Value": "beec9ea4-94db-4bf8-ae9e-dc6630afe92a"
        },
        {
          "SchemaColumnUId": "aadb966f-e2f2-4239-b56f-51ba5fdf0533",
          "Value": 1
        }
      ]
    },
    {
      "Row": [
        {
          "SchemaColumnUId": "ae0e45ca-c495-4fe7-a39d-3ab7278e1617",
          "Value": "9c17745f-1a36-4b84-a517-953426d02372"
        },
        {
          "SchemaColumnUId": "18fd508a-8e32-454d-bd8a-82a9d4028ace",
          "Value": "null"
        },
        {
          "SchemaColumnUId": "4420cc5f-5a43-490b-b583-f8572ac29dce",
          "Value": "902a37bf-40e9-478b-a037-a67fe9c75160",
          "DisplayValue": "Вакансии"
        },
        {
          "SchemaColumnUId": "a9f680eb-bc67-4aac-919e-0ad9f1000690",
          "Value": "656d8074-b5d3-43de-a0d1-c76e985a19e0"
        },
        {
          "SchemaColumnUId": "aadb966f-e2f2-4239-b56f-51ba5fdf0533",
          "Value": 1
        }
      ]
    },
    {
      "Row": [
        {
          "SchemaColumnUId": "ae0e45ca-c495-4fe7-a39d-3ab7278e1617",
          "Value": "ddc769f7-a73f-4b1b-a0e0-9315b56fbad0"
        },
        {
          "SchemaColumnUId": "18fd508a-8e32-454d-bd8a-82a9d4028ace",
          "Value": "485c5371-ba0b-47ea-9c81-680d98d67aeb"
        },
        {
          "SchemaColumnUId": "4420cc5f-5a43-490b-b583-f8572ac29dce",
          "Value": "fb578ce5-c237-4953-b5b9-d4e55d0f0453",
          "DisplayValue": "Соискатели"
        },
        {
          "SchemaColumnUId": "a9f680eb-bc67-4aac-919e-0ad9f1000690",
          "Value": "0c28c9dc-17fd-4cc3-b1de-051774da79c1"
        },
        {
          "SchemaColumnUId": "aadb966f-e2f2-4239-b56f-51ba5fdf0533",
          "Value": 2
        }
      ]
    }
  ]
}