﻿{
  "Descriptor": {
    "UId": "532009d6-dc93-4d1d-9a56-1a55a26a6413",
    "Name": "GbcApplicantsa08dc32cSection",
    "ModifiedOnUtc": "\/Date(1684929480000)\/",
    "Parent": {
      "UId": "7912fb69-4fee-429f-8b23-93943c35d66d",
      "Name": "BaseSectionV2"
    },
    "ManagerName": "ClientUnitSchemaManager",
    "Caption": "Схема раздела: \"Соискатели\""
  }
}