﻿{
  "Descriptor": {
    "UId": "e68e3429-97fb-4703-a1ce-4b58b924c863",
    "Name": "GbcVacanciesTag",
    "ModifiedOnUtc": "\/Date(1684950999000)\/",
    "Parent": {
      "UId": "9e3f203c-e905-4de5-9468-335b193f2439",
      "Name": "BaseTag"
    },
    "ManagerName": "EntitySchemaManager",
    "Caption": "Тег раздела Вакансии"
  }
}