﻿{
  "Descriptor": {
    "UId": "65ee2416-ab96-4f1f-8d01-27b249327b8d",
    "Name": "GbcProcess_c270015",
    "ModifiedOnUtc": "\/Date(1685055490000)\/",
    "ManagerName": "ProcessSchemaManager",
    "Caption": "Подбор вакансий по резюме"
  }
}