﻿{
  "Descriptor": {
    "UId": "6bca43c2-aba4-46d6-8c6f-279fad059b0e",
    "Name": "GbcResume9c5c90d7Section",
    "ModifiedOnUtc": "\/Date(1684949474000)\/",
    "Parent": {
      "UId": "7912fb69-4fee-429f-8b23-93943c35d66d",
      "Name": "BaseSectionV2"
    },
    "ManagerName": "ClientUnitSchemaManager",
    "Caption": "Схема раздела: \"Резюме\""
  }
}